A [dead]
B [dead]
C [dead]
D Austin
E London
F Dallas
G [dead]
H Providence
I Chicago
J [dead]
K Madison
L [dead]
M Baltimore
N [dead]
O [dead]
P Toronto
Q Ottowa
R [dead]
S SanAntonio
T [dead]
U [dead]
V [dead]
W [dead]
X AnnArbor
Y [dead]
Z Amsterdam
