...
----------------------------------------------------------------------
Ran 3 tests in 0.003s

OK
Name               Stmts   Miss Branch BrPart  Cover   Missing
--------------------------------------------------------------
Diplomacy.py          80      3     48      3    95%   88-89, 102, 87->88, 101->102, 106->100
TestDiplomacy.py      21      0      0      0   100%
--------------------------------------------------------------
TOTAL                101      3     48      3    96%
