.....
----------------------------------------------------------------------
Ran 5 tests in 0.003s

OK
Name               Stmts   Miss Branch BrPart  Cover   Missing
--------------------------------------------------------------
Diplomacy.py          51      0     34      1    99%   27->exit
TestDiplomacy.py      36      0      2      1    97%   42->exit
--------------------------------------------------------------
TOTAL                 87      0     36      2    98%
