A Memphis
B Portland
C Nashville
D [dead]
E [dead]
F Boston
G Washington
H Denver
I Seattle
J Phoenix
K Charlotte
L SanFrancisco
M Columbus
N [dead]
O Jacksonville
P Austin
Q SanJose
R [dead]
S Dallas
T [dead]
U Philadelphia
V [dead]
W SanAntonio
X Chicago
Y LosAngeles
Z NewYork
