A [dead]
B Hamburg
C [dead]
D Istanbul
E [dead]
F Bucharest
G [dead]
H SaintPetersburg
I Moscow
J Vienna
K Kiev
L [dead]
M Rome
N [dead]
O Paris
P [dead]
Q [dead]
R [dead]
S Berlin
T [dead]
U [dead]
V Minsk
W London
X [dead]
Y Madrid
Z [dead]
