python                  RunDiplomacy.py < RunDiplomacy1.in > RunDiplomacy1.tmp
diff --strip-trailing-cr RunDiplomacy1.tmp RunDiplomacy1.out
python                  RunDiplomacy.py < RunDiplomacy2.in > RunDiplomacy2.tmp
diff --strip-trailing-cr RunDiplomacy2.tmp RunDiplomacy2.out
python                  RunDiplomacy.py < RunDiplomacy3.in > RunDiplomacy3.tmp
diff --strip-trailing-cr RunDiplomacy3.tmp RunDiplomacy3.out
python                  RunDiplomacy.py < RunDiplomacy4.in > RunDiplomacy4.tmp
diff --strip-trailing-cr RunDiplomacy4.tmp RunDiplomacy4.out
python                  RunDiplomacy.py < RunDiplomacy5.in > RunDiplomacy5.tmp
diff --strip-trailing-cr RunDiplomacy5.tmp RunDiplomacy5.out
coverage run    --branch TestDiplomacy.py >  TestDiplomacy.tmp 2>&1
coverage report -m                      >> TestDiplomacy.tmp
cat TestDiplomacy.tmp
............
----------------------------------------------------------------------
Ran 12 tests in 0.003s

OK
Name               Stmts   Miss Branch BrPart  Cover   Missing
--------------------------------------------------------------
Diplomacy.py          76      4     68      6    93%   47-48, 59, 69, 46->47, 49->39, 55->54, 58->59, 68->69, 70->64
TestDiplomacy.py      72      0      2      1    99%   118->exit
--------------------------------------------------------------
TOTAL                148      4     70      7    95%